<svg width="43" height="41" viewBox="0 0 43 41" fill="none" xmlns="http://www.w3.org/2000/svg">
<path d="M4.48511 16.522V35.1306C4.48511 37.3398 6.27597 39.1306 8.48511 39.1306H34.4626C36.6717 39.1306 38.4626 37.3398 38.4626 35.1306V16.522" stroke="#3C967B" stroke-width="2"/>
<path d="M41.9473 20L25.6664 4.09576C23.3351 1.81842 19.6122 1.81842 17.281 4.09575L1.00005 20" stroke="#3C967B" stroke-width="2" stroke-linecap="round"/>
<path d="M16.8118 29.2173C16.8118 27.5604 18.1549 26.2173 19.8118 26.2173H23.1376C24.7944 26.2173 26.1376 27.5604 26.1376 29.2173V38.9999H16.8118V29.2173Z" stroke="#3C967B" stroke-width="2"/>
</svg>
